<?xml version="1.0" encoding="UTF-8" standalone="no"?>
<!-- Created with Inkscape (http://www.inkscape.org/) -->

<svg
   xmlns:dc="http://purl.org/dc/elements/1.1/"
   xmlns:cc="http://creativecommons.org/ns#"
   xmlns:rdf="http://www.w3.org/1999/02/22-rdf-syntax-ns#"
   xmlns:svg="http://www.w3.org/2000/svg"
   xmlns="http://www.w3.org/2000/svg"
   xmlns:sodipodi="http://sodipodi.sourceforge.net/DTD/sodipodi-0.dtd"
   xmlns:inkscape="http://www.inkscape.org/namespaces/inkscape"
   width="32"
   height="32"
   viewBox="0 0 30 29.999999"
   id="svg2"
   version="1.1"
   inkscape:version="0.92.0 r"
   sodipodi:docname="favicon.svg"
   inkscape:export-filename="/home/adrien/Code/OpenFuelMap/src/img/favicon.32.png"
   inkscape:export-xdpi="96"
   inkscape:export-ydpi="96">
  <defs
     id="defs4">
    <radialGradient
       r="13.515"
       gradientTransform="matrix(1.1868,0,0,0.7372,-2.4908,269.6)"
       cx="15.58"
       cy="1032"
       gradientUnits="userSpaceOnUse"
       id="a">
      <stop
         id="stop4160"
         offset="0"
         stop-color="#ff0018" />
      <stop
         id="stop4162"
         offset="1"
         stop-color="#fff600" />
    </radialGradient>
    <filter
       style="color-interpolation-filters:sRGB"
       id="a-3">
      <feFlood
         id="feFlood4185"
         flood-color="rgb(74,74,74)"
         flood-opacity=".58824"
         result="flood" />
      <feComposite
         id="feComposite4187"
         in="flood"
         in2="SourceGraphic"
         result="composite1"
         operator="in" />
      <feGaussianBlur
         id="feGaussianBlur4189"
         in="composite1"
         result="blur"
         stdDeviation="2" />
      <feOffset
         id="feOffset4191"
         dy="0"
         dx="0"
         result="offset" />
      <feComposite
         id="feComposite4193"
         in="offset"
         in2="offset"
         result="composite2"
         operator="atop" />
    </filter>
  </defs>
  <sodipodi:namedview
     id="base"
     pagecolor="#ffffff"
     bordercolor="#666666"
     borderopacity="1.0"
     inkscape:pageopacity="0.0"
     inkscape:pageshadow="2"
     inkscape:zoom="1.979899"
     inkscape:cx="47.778261"
     inkscape:cy="-5.1701889"
     inkscape:document-units="px"
     inkscape:current-layer="layer1"
     showgrid="false"
     inkscape:window-width="1600"
     inkscape:window-height="876"
     inkscape:window-x="1920"
     inkscape:window-y="552"
     inkscape:window-maximized="1"
     units="px" />
  <metadata
     id="metadata7">
    <rdf:RDF>
      <cc:Work
         rdf:about="">
        <dc:format>image/svg+xml</dc:format>
        <dc:type
           rdf:resource="http://purl.org/dc/dcmitype/StillImage" />
        <dc:title></dc:title>
      </cc:Work>
    </rdf:RDF>
  </metadata>
  <g
     inkscape:label="Calque 1"
     inkscape:groupmode="layer"
     id="layer1"
     transform="translate(0,-1022.3622)">
    <circle
       style="color:#000000;clip-rule:nonzero;display:inline;overflow:visible;visibility:visible;opacity:1;isolation:auto;mix-blend-mode:normal;color-interpolation:sRGB;color-interpolation-filters:linearRGB;solid-color:#000000;solid-opacity:1;fill:#2574a9;fill-opacity:1;fill-rule:nonzero;stroke:none;stroke-width:0.53447866;stroke-linecap:butt;stroke-linejoin:round;stroke-miterlimit:4;stroke-dasharray:0.53447868, 0.53447868;stroke-dashoffset:0;stroke-opacity:1;color-rendering:auto;image-rendering:auto;shape-rendering:auto;text-rendering:auto;enable-background:accumulate"
       id="path4522"
       cx="15.000001"
       cy="1037.3622"
       r="15" />
    <path
       inkscape:connector-curvature="0"
       style="color:#000000;text-indent:0;text-transform:none;direction:ltr;baseline-shift:baseline;display:inline;overflow:visible;visibility:visible;fill:#ffffff;fill-opacity:1;stroke:none;stroke-width:1.01068103;enable-background:accumulate"
       d="m 14.905264,1026.2177 c -0.781653,0.035 -1.502779,0.4323 -1.951938,1.0771 -1.273068,1.8113 -2.789949,4.1142 -4.0300179,6.4633 -1.2400687,2.3483 -2.2987069,4.6457 -2.2987069,7.1598 0,4.6305 3.7732708,8.427 8.3751438,8.427 4.601872,0 8.375656,-3.7965 8.375656,-8.427 0,-2.5141 -1.058645,-4.8115 -2.298711,-7.1598 -1.240072,-2.3491 -2.756952,-4.652 -4.030018,-6.4633 -0.487731,-0.6992 -1.292937,-1.104 -2.141408,-1.0771 z m 0.953495,7.4403 c 0.553737,0 1.059098,0.063 1.51579,0.1881 0.456692,0.1226 0.910569,0.3206 1.361553,0.6028 l -0.685376,1.258 c -0.291155,-0.1776 -0.607909,-0.3275 -0.950429,-0.448 -0.336794,-0.1254 -0.710495,-0.1882 -1.121519,-0.1882 -0.393897,0 -0.759175,0.074 -1.095986,0.2231 -0.336796,0.1498 -0.639736,0.3682 -0.908048,0.6553 -0.268301,0.2821 -0.49945,0.6292 -0.693542,1.0427 -0.188378,0.4077 -0.333903,0.8728 -0.436655,1.3957 h 3.699075 v 1.1803 h -3.827269 c 0,0.087 -0.0029,0.1708 -0.0087,0.2509 -0.0056,0.07 -0.0088,0.1393 -0.0088,0.2159 v 0.1882 0.345 c 0,0.1142 0.0059,0.2368 0.01742,0.3616 h 3.29664 v 1.1803 h -3.134232 c 0.194092,1.0052 0.553934,1.7724 1.079132,2.3009 0.530902,0.5284 1.221363,0.7922 2.071953,0.7922 0.42815,0 0.833523,-0.046 1.216004,-0.1394 0.388186,-0.091 0.751,-0.2125 1.087813,-0.3616 v 1.3957 c -0.336831,0.1602 -0.696654,0.2857 -1.079134,0.3703 -0.37677,0.091 -0.8247,0.1394 -1.344188,0.1394 -0.656494,0 -1.244508,-0.1044 -1.763998,-0.3101 -0.519487,-0.2125 -0.973365,-0.5114 -1.361554,-0.896 -0.382481,-0.3909 -0.69925,-0.8619 -0.95043,-1.4136 -0.251194,-0.5569 -0.436792,-1.183 -0.556675,-1.8781 H 9.8731507 v -1.1803 h 1.2675813 c -0.01157,-0.1324 -0.01742,-0.2406 -0.01742,-0.3276 v -0.3794 c 0,-0.1254 0.0029,-0.2543 0.0087,-0.3874 0.0056,-0.1323 0.0088,-0.2195 0.0088,-0.2683 H 9.8732307 v -1.1802 h 1.3702333 c 0.102768,-0.7182 0.279448,-1.3676 0.530629,-1.9477 0.251194,-0.5804 0.568465,-1.0769 0.950945,-1.4904 0.388186,-0.4135 0.844527,-0.7323 1.369725,-0.9564 0.525197,-0.223 1.113207,-0.3378 1.763995,-0.3378 z"
       id="path4501-3" />
  </g>
</svg>
