<?xml version="1.0" encoding="UTF-8" standalone="no"?>
<!-- Created with Inkscape (http://www.inkscape.org/) -->

<svg
   xmlns:dc="http://purl.org/dc/elements/1.1/"
   xmlns:cc="http://creativecommons.org/ns#"
   xmlns:rdf="http://www.w3.org/1999/02/22-rdf-syntax-ns#"
   xmlns:svg="http://www.w3.org/2000/svg"
   xmlns="http://www.w3.org/2000/svg"
   xmlns:sodipodi="http://sodipodi.sourceforge.net/DTD/sodipodi-0.dtd"
   xmlns:inkscape="http://www.inkscape.org/namespaces/inkscape"
   width="256mm"
   height="64mm"
   viewBox="0 0 907.08663 226.77165"
   id="svg2"
   version="1.1"
   inkscape:version="0.92.0 r"
   sodipodi:docname="logo.white.svg"
   inkscape:export-filename="/home/adrien/Code/OpenFuelMap/src/img/logo.white.png"
   inkscape:export-xdpi="89.989998"
   inkscape:export-ydpi="89.989998">
  <defs
     id="defs4">
    <radialGradient
       r="13.515"
       gradientTransform="matrix(1.1868,0,0,0.7372,-2.4908,269.6)"
       cx="15.58"
       cy="1032"
       gradientUnits="userSpaceOnUse"
       id="a">
      <stop
         id="stop4160"
         offset="0"
         stop-color="#ff0018" />
      <stop
         id="stop4162"
         offset="1"
         stop-color="#fff600" />
    </radialGradient>
    <filter
       style="color-interpolation-filters:sRGB"
       id="a-3">
      <feFlood
         id="feFlood4185"
         flood-color="rgb(74,74,74)"
         flood-opacity=".58824"
         result="flood" />
      <feComposite
         id="feComposite4187"
         in="flood"
         in2="SourceGraphic"
         result="composite1"
         operator="in" />
      <feGaussianBlur
         id="feGaussianBlur4189"
         in="composite1"
         result="blur"
         stdDeviation="2" />
      <feOffset
         id="feOffset4191"
         dy="0"
         dx="0"
         result="offset" />
      <feComposite
         id="feComposite4193"
         in="offset"
         in2="offset"
         result="composite2"
         operator="atop" />
    </filter>
  </defs>
  <sodipodi:namedview
     id="base"
     pagecolor="#ffffff"
     bordercolor="#666666"
     borderopacity="1.0"
     inkscape:pageopacity="0.0"
     inkscape:pageshadow="2"
     inkscape:zoom="0.98994949"
     inkscape:cx="297.83977"
     inkscape:cy="113.3223"
     inkscape:document-units="px"
     inkscape:current-layer="layer1"
     showgrid="false"
     inkscape:window-width="1920"
     inkscape:window-height="1023"
     inkscape:window-x="0"
     inkscape:window-y="0"
     inkscape:window-maximized="1" />
  <metadata
     id="metadata7">
    <rdf:RDF>
      <cc:Work
         rdf:about="">
        <dc:format>image/svg+xml</dc:format>
        <dc:type
           rdf:resource="http://purl.org/dc/dcmitype/StillImage" />
        <dc:title />
      </cc:Work>
    </rdf:RDF>
  </metadata>
  <g
     inkscape:label="Calque 1"
     inkscape:groupmode="layer"
     id="layer1"
     transform="translate(0,-825.59056)">
    <flowRoot
       xml:space="preserve"
       id="flowRoot4218"
       style="font-style:normal;font-weight:normal;font-size:40px;line-height:125%;font-family:sans-serif;letter-spacing:0px;word-spacing:0px;fill:#ffffff;fill-opacity:1;stroke:none;stroke-width:1px;stroke-linecap:butt;stroke-linejoin:miter;stroke-opacity:1"
       transform="translate(101.89993,865.63654)"><flowRegion
         id="flowRegion4220"
         style="fill:#ffffff;fill-opacity:1"><rect
           id="rect4222"
           width="684.28571"
           height="145.71428"
           x="215.71428"
           y="49.628796"
           style="fill:#ffffff;fill-opacity:1" /></flowRegion><flowPara
         id="flowPara4224"
         style="font-style:normal;font-variant:normal;font-weight:normal;font-stretch:normal;font-size:80px;font-family:sans-serif;-inkscape-font-specification:sans-serif;fill:#ffffff;fill-opacity:1">OpenFuelMap</flowPara></flowRoot>    <g
       id="g4531"
       transform="matrix(0.82303102,0,0,0.82303102,18.247472,166.16969)">
      <g
         transform="matrix(3.3324647,0,0,3.3324647,-22.989455,772.35367)"
         id="g4515"
         style="fill:#ffffff;fill-opacity:1">
        <g
           transform="translate(0,-952.36218)"
           id="g4503"
           style="fill:#ffffff;fill-opacity:1">
          <path
             sodipodi:nodetypes="ccccccccccccccccccccccccscccccccccccscccccc"
             inkscape:connector-curvature="0"
             style="color:#000000;text-indent:0;text-transform:none;direction:ltr;baseline-shift:baseline;display:inline;overflow:visible;visibility:visible;fill:#ffffff;fill-opacity:1;stroke:none;enable-background:accumulate"
             d="m 65.613858,971.05043 c -9.95576,0.5539 -17.06852,8.6534 -22.375,14.3437 l -0.46875,-0.6562 c -0.49725,-0.68731 -1.309086,-1.0756 -2.15625,-1.0313 -0.469942,0.0195 -0.92486,0.17112 -1.3125,0.4375 l -20.15625,14.2813 c -0.490194,0.35603 -0.834441,0.87793 -0.96875,1.4687 l -7.5625,30.68747 c -0.385716,1.5783 0.812773,3.0995 2.4375,3.0938 h 9.65625 c 1.105281,-0.013 2.071021,-0.7498 2.375,-1.8125 l 5.625,-19.375 c 0.26452,0.066 0.493,0.1224 0.75,0.1875 -0.63015,1.7595 -1.12745,3.4662 -1.15625,5.4062 -0.0427,2.8789 1.09828,5.8438 3.625,9.25 1.904797,3.1014 6.416762,-0.2473 4,-2.9687 -2.15228,-2.9015 -2.64902,-4.6009 -2.625,-6.2188 0.0179,-1.2067 0.44558,-2.5363 1.09375,-4.3125 1.94942,0.3373 3.7626,0.4003 5.59375,-0.094 2.04087,-0.5506 3.86202,-1.8477 5.59375,-3.7813 1.73173,-1.9335 3.49604,-4.5339 5.6875,-8.1562 0.526096,-0.8667 0.476722,-1.96527 -0.125,-2.78127 l -3.90625,-5.375 c 2.82609,-2.685 5.4744,-5.5893 8.09375,-7.9062 3.19981,-2.8304 6.20509,-4.625 9.28125,-4.625 h 15.65625 c 1.380655,-1.4e-4 2.499862,-1.11935 2.5,-2.5 v -5.0625 c -1.38e-4,-1.38065 -1.119345,-2.49986 -2.5,-2.5 h -16.5 c -0.05207,-0.002 -0.104179,-0.002 -0.15625,0 z m -25.4375,18.625 0.8125,1.0937 7.09375,9.74997 c -1.61629,2.5725 -3.11232,4.8585 -4.21875,6.0938 -1.34453,1.5012 -2.24656,2.0671 -3.15625,2.3125 -1.81938,0.4908 -5.0287,-0.509 -11.21875,-1.8438 -1.267741,-0.2665 -2.529065,0.4795 -2.90625,1.7188 l -5.75,19.875 h -4.625 l 6.59375,-26.6875 z"
             marker="none"
             visibility="visible"
             display="inline"
             overflow="visible"
             id="path4501" />
        </g>
      </g>
      <path
         id="path4501-3"
         transform="matrix(0.93749997,0,0,0.93749997,0,825.59056)"
         d="m 273.06836,61.398438 c -2.98929,0.131424 -5.74905,1.643755 -7.4668,4.09375 -4.86862,6.884949 -10.66966,15.6377 -15.41211,24.564453 -4.74242,8.926389 -8.79101,17.658419 -8.79101,27.212889 0,17.59986 14.43219,32.0293 32.03125,32.0293 17.59907,0 32.02929,-14.42944 32.02929,-32.0293 0,-9.55447 -4.04858,-18.2865 -8.79101,-27.212889 -4.74243,-8.926753 -10.54348,-17.679504 -15.41211,-24.564453 -1.86523,-2.657089 -4.94267,-4.195809 -8.1875,-4.09375 z m 3.64453,28.279296 c 2.11768,0 4.05034,0.240404 5.79688,0.720704 1.74654,0.458467 3.48232,1.221258 5.20703,2.291015 l -2.61914,4.78125 c -1.11343,-0.676785 -2.32682,-1.244657 -3.63672,-1.703125 -1.28808,-0.480299 -2.71718,-0.720703 -4.28906,-0.720703 -1.50639,0 -2.90333,0.283936 -4.19141,0.851563 -1.28808,0.567626 -2.44461,1.398645 -3.4707,2.490234 -1.0261,1.069757 -1.91203,2.389048 -2.6543,3.960938 -0.72045,1.55006 -1.27695,3.31995 -1.66992,5.30664 h 14.14843 v 4.48633 h -14.63867 c 0,0.32747 -0.0114,0.64357 -0.0332,0.94922 -0.0218,0.26198 -0.0332,0.53454 -0.0332,0.81836 v 0.7207 1.31055 c 0,0.43663 0.0227,0.8947 0.0664,1.375 h 12.60742 v 4.48632 h -11.98632 c 0.74228,3.82057 2.11843,6.73562 4.12695,8.74415 2.03035,2.00852 4.67284,3.01171 7.92578,3.01171 1.63739,0 3.18766,-0.17412 4.65039,-0.52343 1.48456,-0.34931 2.87013,-0.80738 4.1582,-1.375 v 5.30468 c -1.28807,0.61129 -2.66422,1.08073 -4.12695,1.40821 -1.4409,0.3493 -3.15393,0.52343 -5.14062,0.52343 -2.51066,0 -4.75941,-0.39179 -6.7461,-1.17773 -1.9867,-0.80778 -3.72247,-1.94352 -5.20703,-3.40625 -1.46273,-1.48456 -2.67417,-3.27524 -3.63476,-5.37109 -0.96061,-2.11769 -1.67045,-4.49703 -2.12891,-7.13868 h -5.37109 v -4.48632 h 4.84765 c -0.0437,-0.50213 -0.0664,-0.91667 -0.0664,-1.24414 v -1.44141 c 0,-0.4803 0.0114,-0.97248 0.0332,-1.47461 0.0218,-0.50213 0.0332,-0.83902 0.0332,-1.01367 h -4.84765 v -4.48633 h 5.24023 c 0.39297,-2.72897 1.0687,-5.19733 2.0293,-7.40234 0.9606,-2.205013 2.17399,-4.092178 3.63672,-5.664066 1.48455,-1.571889 3.22975,-2.783326 5.23828,-3.634766 2.00852,-0.851439 4.25727,-1.277344 6.74609,-1.277344 z"
         style="color:#000000;text-indent:0;text-transform:none;direction:ltr;baseline-shift:baseline;display:inline;overflow:visible;visibility:visible;fill:#ffffff;fill-opacity:1;stroke:none;stroke-width:3.85322547;enable-background:accumulate"
         inkscape:connector-curvature="0" />
    </g>
    <g
       aria-label="€"
       transform="matrix(1.1789162,0,0,1.1789162,-65.269003,876.45499)"
       style="font-style:normal;font-weight:normal;font-size:7.5px;line-height:25px;font-family:Sans;letter-spacing:0px;word-spacing:0px;fill:#adadad;fill-opacity:1;stroke:none;stroke-width:1px;stroke-linecap:butt;stroke-linejoin:miter;stroke-opacity:1"
       id="flowRoot4568" />
  </g>
</svg>
